\select@language {italian}
\select@language {italian}
\contentsline {section}{\numberline {1}Introduzione}{4}{section.1}
\contentsline {section}{\numberline {2}Analisi e Progettazione}{4}{section.2}
\contentsline {subsection}{\numberline {2.1}Specifiche}{4}{subsection.2.1}
\contentsline {subsection}{\numberline {2.2}Architettura}{6}{subsection.2.2}
\contentsline {subsubsection}{\numberline {2.2.1}Door}{6}{subsubsection.2.2.1}
\contentsline {paragraph}{Communication}{7}{section*.2}
\contentsline {subsubsection}{\numberline {2.2.2}Gateway}{7}{subsubsection.2.2.2}
\contentsline {section}{\numberline {3}Design dettagliato}{8}{section.3}
\contentsline {subsection}{\numberline {3.1}C++}{8}{subsection.3.1}
\contentsline {subsection}{\numberline {3.2}Java}{9}{subsection.3.2}
\contentsline {subsection}{\numberline {3.3}Android}{9}{subsection.3.3}
\contentsline {section}{\numberline {4}Schema Fritzing}{10}{section.4}
